<svg width="19" height="18" viewBox="0 0 19 18" version="1.1" xmlns="http://www.w3.org/2000/svg" xmlns:xlink="http://www.w3.org/1999/xlink">
<title>&#208;&#147;&#209;&#128;&#208;&#190;&#208;&#188;&#208;&#186;&#208;&#190;&#209;&#129;&#209;&#130;&#209;&#140; (&#208;&#178;&#209;&#139;&#208;&#186;&#208;&#187;)</title>
<desc>Created using Figma</desc>
<g id="Canvas" transform="translate(4731 1077)">
<g id="&#208;&#147;&#209;&#128;&#208;&#190;&#208;&#188;&#208;&#186;&#208;&#190;&#209;&#129;&#209;&#130;&#209;&#140; (&#208;&#178;&#209;&#139;&#208;&#186;&#208;&#187;)">
<g id="Union">
<use xlink:href="#path0_fill" transform="translate(-4731 -1077)"/>
</g>
<g id="Union">
<use xlink:href="#path1_fill" transform="translate(-4719.88 -1072)"/>
</g>
</g>
</g>
<defs>
<path id="path0_fill" d="M 4 13L 10 18L 10 0L 4 5L 0 5L 0 13L 4 13Z"/>
<path id="path1_fill" d="M 7.07107 1.41421L 5.65685 0L 3.53553 2.12132L 1.41421 0L 0 1.41421L 2.12132 3.53553L 0 5.65685L 1.41421 7.07107L 3.53553 4.94975L 5.65685 7.07107L 7.07107 5.65685L 4.94975 3.53553L 7.07107 1.41421Z"/>
</defs>
</svg>
