<svg width="12" height="11" viewBox="0 0 12 11" version="1.1" xmlns="http://www.w3.org/2000/svg" xmlns:xlink="http://www.w3.org/1999/xlink">
<title>Rectangle</title>
<desc>Created using Figma</desc>
<g id="Canvas" transform="translate(-4280 2556)">
<g id="Rectangle">
<use xlink:href="#path0_fill" transform="translate(4280 -2556)"/>
</g>
</g>
<defs>
<path id="path0_fill" d="M 0 0L 12 5.36842L 0 10.2L 0 0Z"/>
</defs>
</svg>
